﻿type,startTime,sportTime,distance,maxPace,minPace,avgPace,calories
6,1622162762,3301,3.0194805,0.32574776,3023.0,1.091,440.0
16,1622160305,2445,0.0,1.8000001,0.0,0.0,307.0
16,1622094951,1214,0.0,1.8000001,0.0,0.0,143.0
6,1622075315,3491,3.0194807,0.30483213,3028.0,1.152,401.0
16,1622072888,2389,0.0,1.8000001,0.0,0.0,299.0
6,1621989407,2994,3.0194805,0.32577613,3029.0,0.988,355.0
16,1621986780,2615,0.0,1.8000001,0.0,0.0,315.0
6,1621903964,3071,3.0194805,0.3211243,3043.0,1.009,402.0
16,1621901566,2381,0.0,1.8000001,0.0,0.0,319.0
16,1621821096,266,0.0,1.8000001,0.0,0.0,33.0
6,1621818044,3039,3.0194805,0.17219393,3041.0,0.999,375.0
16,1621815817,2189,0.0,1.8000001,0.0,0.0,286.0
6,1621730862,3029,3.0194805,0.3211225,3038.0,0.996,386.0
16,1621728297,2382,0.0,1.8000001,0.0,0.0,313.0
16,1621648353,785,0.0,1.8000001,0.0,0.0,63.0
6,1621645330,3008,3.0194805,0.3231247,3037.0,0.99,368.0
16,1621642166,3054,0.0,1.8000001,0.0,0.0,382.0
6,1621603040,3081,3.225018,0.31632498,3012.0,1.022,351.0
1,1621602853,160,2.9848547,0.15660618,186.0,0.855,18.0
16,1621562306,127,0.0,1.8000001,0.0,0.0,9.0
6,1621559055,3230,3.0194805,0.3261206,3023.0,1.068,388.0
16,1621556071,2972,0.0,1.8000001,0.0,0.0,331.0
16,1621475386,285,0.0,1.8000001,0.0,0.0,28.0
6,1621471975,3357,3.0194802,0.27107298,3020.0,1.111,415.0
16,1621469588,2357,0.0,1.8000001,0.0,0.0,288.0
16,1621391778,390,0.0,1.8000001,0.0,0.0,54.0
6,1621388435,3328,3.0194805,0.32113826,3023.0,1.1,433.0
16,1621384685,3372,0.0,1.8000001,0.0,0.0,510.0
16,1621302836,1890,0.0,1.8000001,0.0,0.0,81.0
6,1621299142,3148,3.0194805,0.29737914,3031.0,1.038,427.0
16,1621296613,2380,0.0,1.8000001,0.0,0.0,332.0
16,1621216535,353,0.0,1.8000001,0.0,0.0,40.0
6,1621213124,3145,3.0194805,0.32074755,3035.0,1.036,386.0
16,1621210875,2215,0.0,1.8000001,0.0,0.0,305.0
16,1621166952,1116,0.0,1.8000001,0.0,0.0,119.0
16,1621132067,1124,0.0,1.8000001,0.0,0.0,115.0
6,1621128900,3028,3.0194805,0.32440925,3042.0,0.995,350.0
16,1621126744,2144,0.0,1.8000001,0.0,0.0,298.0
16,1621039931,2414,0.0,1.8000001,0.0,0.0,292.0
6,1620998035,3010,3.0194802,0.32524097,3018.0,0.997,364.0
16,1620955816,484,0.0,1.8000001,0.0,0.0,51.0
6,1620952725,2913,3.0194805,0.22513326,3035.0,0.959,344.0
16,1620951497,784,0.0,1.8000001,0.0,0.0,106.0
16,1620915029,275,0.0,1.8000001,0.0,0.0,30.0
6,1620911818,2922,3.0194805,0.3244105,3022.0,0.966,346.0
6,1620866419,2993,3.0194805,0.3211344,3020.0,0.99,368.0
16,1620864671,1734,0.0,1.8000001,0.0,0.0,225.0
16,1620783535,360,0.0,1.8000001,0.0,0.0,56.0
6,1620780433,2855,3.0194805,0.28030834,3026.0,0.943,357.0
16,1620779833,581,0.0,1.8000001,0.0,0.0,64.0
16,1620696494,303,0.0,1.8000001,0.0,0.0,37.0
6,1620693357,2860,3.0194805,0.22507693,3009.0,0.95,340.0
16,1620610814,150,0.0,1.8000001,0.0,0.0,16.0
16,1620610353,227,0.0,1.8000001,0.0,0.0,24.0
6,1620607262,2911,3.0194805,0.2429835,3033.0,0.959,331.0
16,1620437361,497,0.0,1.8000001,0.0,0.0,61.0
6,1620433834,3187,3.0194805,0.32673195,3407.0,0.935,407.0
16,1620397359,146,0.0,1.8000001,0.0,0.0,14.0
6,1620394095,2982,3.0194805,0.3146709,3047.0,0.978,363.0
6,1620348523,3634,3.0194805,0.3211403,3784.0,0.96,452.0
16,1620347773,733,0.0,1.8000001,0.0,0.0,80.0
16,1620265384,123,0.0,1.8000001,0.0,0.0,14.0
6,1620262155,3101,3.0194805,0.31343043,3335.0,0.929,387.0
6,1620220710,3084,3.0194805,0.23670846,3256.0,0.947,381.0
6,1620092095,1966,3.0194805,0.3211414,2029.0,0.968,226.0
6,1620003578,2722,4.608295,0.45126352,3028.0,0.8985121,266.0
6,1620002965,3213,3.0194805,0.321141,3203.0,1.003,364.0
